No.	Quantity	Device	Designator	Footprint	Value	Manufacturer Part	Manufacturer	Supplier Part	Supplier
1	2	CK1C101M-CRE54	C1,C2	CAP-SMD_BD6.3-L6.6-W6.6-LS7.2-FD	100uF	CK1C101M-CRE54	ROQANG(容强)	C3001238	LCSC
2	4	0402CG101J500NT	C3,C4,C5,C6	C0402	100pF	0402CG101J500NT	FH(风华)	C1546	LCSC
3	1	CL05B103KB5NNNC	C7	C0402	10nF	CL05B103KB5NNNC	SAMSUNG(三星)	C15195	LCSC
4	2	2.54-2*7P简牛	P1,P2	IDC-TH_14P-P2.54-V-R2-C7-S2.54		2.54-2*7P简牛	BOOMELE(博穆精密)	C11215	LCSC
5	1	1210W2J0201T5E	R1	R1210	200Ω	1210W2J0201T5E	UNI-ROYAL(厚声)	C396487	LCSC
6	3	0402WGF750JTCE	R2,R3,R4	R0402	75Ω	0402WGF750JTCE	UNI-ROYAL(厚声)	C25133	LCSC
7	1	0603WAF1001T5E	R5	R0603		0603WAF1001T5E	UniOhm	C21190	LCSC
8	1	SN74HC244PWR	U1	TSSOP-20_L6.5-W4.4-P0.65-LS6.4-BL		SN74HC244PWR	TI(德州仪器)	C6835	LCSC
9	1	BZX55C10	ZD1	DO-35_BD2.0-L4.0-P8.00-D0.5-FD		BZX55C10	ST(先科)	C2519	LCSC
